{
    "title": "Fantastic Mr Fox",
    "key": "/works/OL45804W",
    "authors": [{
        "author": {
            "key": "/authors/OL34184A"
        },
        "type": {
            "key": "/type/author_role"
        }
    }],
    "type": {
        "key": "/type/work"
    },
    "description": "The main character of Fantastic Mr. Fox is an extremely clever anthropomorphized fox named Mr. Fox. He lives with his wife and four little foxes. In order to feed his family, he steals food from the cruel, brutish farmers named Boggis, Bunce, and Bean every night.\r\n\r\nFinally tired of being constantly outwitted by Mr. Fox, the farmers attempt to capture and kill him. The foxes escape in time by burrowing deep into the ground. The farmers decide to wait outside the hole for the foxes to emerge. Unable to leave the hole and steal food, Mr. Fox and his family begin to starve. Mr. Fox devises a plan to steal food from the farmers by tunneling into the ground and borrowing into the farmer's houses.\r\n\r\nAided by a friendly Badger, the animals bring the stolen food back and Mrs. Fox prepares a great celebratory banquet attended by the other starving animals and their families. Mr. Fox invites all the animals to live with him underground and says that he will provide food for them daily thanks to his underground passages. All the animals live happily and safely, while the farmers remain waiting outside in vain for Mr. Fox to show up.",
    "covers": [6498519, 8904777, 108274, 233884, 1119236, -1, 10222599, 10482837, 3216657, 10519563, 10835922, 10835924, 10861366, 10883671, 8760472, 12583098, 10482548, 10831929, 10835926, 12333895, 12498647, 7682784, 12143357, 12781739, 3077458],
    "subject_places": ["English countryside"],
    "subjects": ["Animals", "Hunger", "Open Library Staff Picks", "Juvenile fiction", "Children's stories, English", "Foxes", "Fiction", "Zorros", "Ficci\u00f3n juvenil", "Tunnels", "Interviews", "Farmers", "Children's stories", "Rats", "Welsh Authors", "English Authors", "Thieves", "Tricksters", "Badgers", "Children's fiction", "Foxes, fiction", "Underground", "Renards", "Romans, nouvelles, etc. pour la jeunesse", "Children's literature", "Plays", "Children's plays", "Children's stories, Welsh", "Agriculteurs", "Large type books", "Fantasy fiction"],
    "subject_people": ["Bean", "Boggis", "Bunce", "Mr Fox"],
    "subject_times": ["20th Century"],
    "location": "/works/OL45883W",
    "latest_revision": 11,
    "revision": 11,
    "created": {
        "type": "/type/datetime",
        "value": "2009-10-15T11:34:21.437031"
    },
    "last_modified": {
        "type": "/type/datetime",
        "value": "2022-11-14T19:55:19.965480"
    }
}